
p6.png
size: 2048,512
format: RGBA8888
filter: Linear,Linear
repeat: none
QR
  rotate: false
  xy: 2, 60
  size: 116, 60
  orig: 116, 60
  offset: 0, 0
  index: -1
black
  rotate: false
  xy: 660, 162
  size: 624, 308
  orig: 624, 308
  offset: 0, 0
  index: -1
cel
  rotate: false
  xy: 2, 122
  size: 656, 348
  orig: 656, 348
  offset: 0, 0
  index: -1
dino
  rotate: false
  xy: 2, 2
  size: 72, 56
  orig: 72, 56
  offset: 0, 0
  index: -1
lona
  rotate: false
  xy: 1286, 182
  size: 624, 288
  orig: 624, 288
  offset: 0, 0
  index: -1
mini trap
  rotate: false
  xy: 1912, 406
  size: 108, 64
  orig: 108, 64
  offset: 0, 0
  index: -1
mão
  rotate: false
  xy: 120, 72
  size: 64, 48
  orig: 64, 48
  offset: 0, 0
  index: -1
